{
  "version": "1.0",
  "defaultProvider": "cdnjs",
  "libraries": [
    {
      "library": "jquery-ajax-unobtrusive@3.2.6",
      "destination": "wwwroot/lib/jquery-ajax-unobtrusive/"
    },
    {
      "library": "sweetalert@2.1.2",
      "destination": "wwwroot/sweetalert/"
    },
    {
      "library": "limonte-sweetalert2@7.33.1",
      "destination": "wwwroot/css/limonte-sweetalert2/",
      "files": [
        "sweetalert2.css"
      ]
    },
    {
      "library": "OwlCarousel2@2.3.4",
      "destination": "wwwroot/OwlCarousel2/"
    },
    {
      "library": "jquery@3.5.1",
      "destination": "wwwroot/jquery/"
    },
    {
      "library": "jqueryui@1.12.1",
      "destination": "wwwroot/jqueryui/"
    },
    {
      "library": "waypoints@4.0.1",
      "destination": "wwwroot/waypoints/"
    },
    {
      "library": "ckeditor5@20.0.0",
      "destination": "wwwroot/ckeditor5/"
    }
  ]
}